{
  "_embedded" : {
    "notices" : [ {
      "link" : "https://www.topreality.sk/id7278739",
      "title" : "6i Rodinný dom. Pozemok 600m2 VÝHĽAD, ktorý vezme DYCH",
      "lastPrice" : 393000,
      "currency" : "€",
      "prices" : [ {
        "updated" : "2020-06-18T19:36:11Z",
        "value" : 393000
      }, {
        "updated" : "2020-06-18T19:36:11Z",
        "value" : 393000
      } ],
      "locality" : "Bratislava IV, Lamač",
      "address" : "Cesta na Klanec",
      "size" : 272,
      "category" : "Rodinný dom / predaj",
      "description" : "6 izbový tehlový rodinný dom 272m2.\nPEKNÝ rovinatý pozemok 600m2 je v cene.\nŠírka pozemku 20m.\n\nKolaudacia 08.2021r.\n\n+ Dokončiť na kľúč + 15000eur\n+ Podlahove kúrenie\n+ Predpriprava na krb\n\nSlnečný rodinný dom sa nachádza v najlukratívnejšej časti Bratislavy, na úpätí Malých Karpát, obklopený prírodou s výhľadom na hory.\n\nDom je určený pre rodinu s deťmi, ktorá preferuje pohodlné a komfortné bývanie v tichom prostredí, s dobrou dostupnosťou do centra Bratislavy.\n\nPrízemie 136m2:\n+ Vstupná chodba\n+ Veľká obytná hala s krbom\n+ Kuchyňa\n+ Kúpeľňa\n+ WC\n+ Izba\n\nPoschodie 136m2:\n+ Spálňa ×4\n+ Veľká loggia\n+ Kúpeľňa s toaletou\n+ WC\n\nDOKONALÝ KĽUD a SÚKROMIE\n\nNádherný výhľad na Malé Karpaty.\nČistý zdravý vzduch. Blízky les ponúka možnosť využitia turistiky, výletov do okolitej prírody, cykloturistika, turistické chodníky.\n\nLamač má všetky výhody moderného bývania v meste a zároveň poskytuje komfort, súkromie a pokojné bývanie v prostredí lesov Malých Karpát. Vynikajúce dopravné napojenie na diaľničnú komunikáciu a MHD - zastávka sa nachádza asi 500m od vášho nového bývania, to vám zaručuje bezproblémovú dopravu do centra mesta.\n\nLamač ako Bratislavská mestská časť ponúka svojim obyvateľom vynikajúcu občiansku vybavenosť..... a možnosť športovo - rekreačných aktivít: turistické, cyklistické trasy, tenisové kurty, športové ihriská.\n\nPár minút autom máte k dispozícii nákupné centrum Bory Mall s bohatými službami, Hornbach, OBI, Metro.\n\nPrístup po betónovej ceste.\n\nInžinierske siete: elektrina a obecná voda.\n---------------------------------------------------\nRealitná kancelária\nFacebook @slovakhome\n\nTeším sa na obhliadku s Vami!\n\nFINANCOVANIE:\nSúčasťou našej kancelárie je hypotekárne centrum, kde vám kompletný servis zastreší naša hypotekárna špecialistka. Zazmluvnené máme všetky banky.\n\nV CENE JE ZAHRNUTÉ:\nProvízia RK, poskytnutie komplexných realitných a právnych služieb – vypracovanie rezervačnej zmluvy, kúpnej zmluvy s návrhom na vklad kúpnej zmluvy, uhradenie poplatku za osvedčenie podpisov kúpnej zmluvy, uhradenie právneho poplatku za návrh na vklad kúpnej zmluvy do katastra nehnuteľností, odovzdanie nehnuteľnosti a pomoc pri prepise všetkých energií.\n\nAutorizácia zmluvy advokátom a formou notárskej zápisnice.\n\nPredáme alebo odkúpime nehnuteľnosť .\nSom tu vždy pre Vás.\n\nKONTAKT\nIng. Ilja Družkov\n+421 917 318 063\ni.druzhkov@gmail.com",
      "contact" : "421 917 318 063",
      "created" : "2020-06-18T19:36:11Z",
      "updated" : "2020-06-18T19:36:11Z",
      "deactivated" : "2020-06-18T19:36:11Z",
      "countOfUpdates" : 1,
      "galleryUrl" : "https://www.topreality.sk/6i-rodinny-dom-pozemok-600m2-vyhlad-ktory-vezme-dych-r7278739/galeria.html#1",
      "latitude" : 48.1923025,
      "longitude" : 17.0592574,
      "_links" : {
        "self" : {
          "href" : "https://ads-sb.styko.online/notices/3"
        },
        "ad" : {
          "href" : "https://ads-sb.styko.online/notices/3"
        }
      }
    }, {
      "link" : "https://www.topreality.sk/id7279150",
      "title" : "Krásny 4i Rodinný dom. Pozemok 544m2",
      "lastPrice" : 397000,
      "currency" : "€",
      "prices" : [ {
        "updated" : "2020-06-18T19:36:11Z",
        "value" : 397000
      }, {
        "updated" : "2020-06-18T19:36:11Z",
        "value" : 397000
      } ],
      "locality" : "Bratislava IV, Záhorská Bystrica",
      "address" : "Donská",
      "size" : 153,
      "category" : "Rodinný dom / predaj",
      "description" : "Krásny 4i Rodinný dom.\nRovinatý pozemok 544m2.\nŠírka pozemku 24m.\n\nSlnečný rodinný dom sa nachádza v najlukratívnejšej časti Bratislavy, na úpätí Malých Karpát, obklopený prírodou s výhľadom na hory.\n\nDom je určený pre rodinu s deťmi, ktorá preferuje pohodlné a komfortné bývanie v tichom prostredí, s dobrou dostupnosťou do centra Bratislavy.\n\nDispozícia:\n+ Vstupná chodba\n+ Veľká obytná hala\n+ Kuchyňa\n+ Kúpeľňa\n+ WC\n+ Izba ×2\n+ Spálňa + kúpeľňa\n\nDOKONALÝ KĽUD a SÚKROMIE\n\nNádherný výhľad na Malé Karpaty.\nČistý zdravý vzduch. Blízky les ponúka možnosť využitia turistiky, výletov do okolitej prírody, cykloturistika, turistické chodníky.\n\nZáhorská Bystrica má všetky výhody moderného bývania v meste a zároveň poskytuje komfort, súkromie a pokojné bývanie v prostredí lesov Malých Karpát. Vynikajúce dopravné napojenie na diaľničnú komunikáciu a MHD - zastávka sa nachádza asi 400m od vášho nového bývania, to vám zaručuje bezproblémovú dopravu do centra mesta.\n\nZáhorská Bystrica ako Bratislavská mestská časť ponúka svojim obyvateľom vynikajúcu občiansku vybavenosť..... a možnosť športovo - rekreačných aktivít: turistické, cyklistické trasy, tenisové kurty, športové ihriská.\n\nPár minút autom máte k dispozícii nákupné centrum Bory Mall s bohatými službami, Hornbach, OBI, Metro.\n\nPrístup po asfaltovej ceste.\n\nVŠETKY inžinierske siete: plyn, elektrina, kanalizácia a obecná voda.\n---------------------------------------------------\nRealitná kancelária\nFacebook @slovakhome\n\nTeším sa na obhliadku s Vami!\n\nFINANCOVANIE:\nSúčasťou našej kancelárie je hypotekárne centrum, kde vám kompletný servis zastreší naša hypotekárna špecialistka. Zazmluvnené máme všetky banky.\n\nV CENE JE ZAHRNUTÉ:\nProvízia RK, poskytnutie komplexných realitných a právnych služieb – vypracovanie rezervačnej zmluvy, kúpnej zmluvy s návrhom na vklad kúpnej zmluvy, uhradenie poplatku za osvedčenie podpisov kúpnej zmluvy, uhradenie právneho poplatku za návrh na vklad kúpnej zmluvy do katastra nehnuteľností, odovzdanie nehnuteľnosti a pomoc pri prepise všetkých energií.\n\nAutorizácia zmluvy advokátom a formou notárskej zápisnice.\n\nPredáme alebo odkúpime nehnuteľnosť .\nSom tu vždy pre Vás.\n\nKONTAKT\nIng. Ilja Družkov\n+421 917 318 063\ni.druzhkov@gmail.com",
      "contact" : "421 917 318 063",
      "created" : "2020-06-18T19:36:11Z",
      "updated" : "2020-06-18T19:36:11Z",
      "deactivated" : "2020-06-18T19:36:11Z",
      "countOfUpdates" : 1,
      "galleryUrl" : "https://www.topreality.sk/krasny-4i-rodinny-dom-pozemok-544m2-r7279150/galeria.html#1",
      "latitude" : 48.2342925,
      "longitude" : 17.0446345,
      "_links" : {
        "self" : {
          "href" : "https://ads-sb.styko.online/notices/5"
        },
        "ad" : {
          "href" : "https://ads-sb.styko.online/notices/5"
        }
      }
    }, {
      "link" : "https://www.topreality.sk/id7278750",
      "title" : "4i Rodinný dom. Pozemok 600m2 VÝHĽAD, ktorý vezme DYCH",
      "lastPrice" : 365000,
      "currency" : "€",
      "prices" : [ {
        "updated" : "2020-06-18T19:36:11Z",
        "value" : 365000
      }, {
        "updated" : "2020-06-18T19:36:11Z",
        "value" : 365000
      } ],
      "locality" : "Bratislava IV, Lamač",
      "address" : "Cesta na Klanec",
      "size" : 155,
      "category" : "Rodinný dom / predaj",
      "description" : "4 izbový tehlový rodinný dom 155m2.\nPEKNÝ rovinatý pozemok 600m2 je v cene.\nŠírka pozemku 20m.\n\nKolaudacia 08.2021r.\n\n+ Dokončiť na kľúč + 15000eur\n+ Podlahove kúrenie\n+ Predpriprava na krb\n\nSlnečný rodinný dom sa nachádza v najlukratívnejšej časti Bratislavy, na úpätí Malých Karpát, obklopený prírodou s výhľadom na hory.\n\nDom je určený pre rodinu s deťmi, ktorá preferuje pohodlné a komfortné bývanie v tichom prostredí, s dobrou dostupnosťou do centra Bratislavy.\n\nDispozícia :\n+ Vstupná chodba\n+ Veľká obytná hala s krbom\n+ Terasa\n+ Kuchyňa, špajza\n+ Kúpeľňa\n+ WC\n+ Spálňa ×3\n+ Technická miestnosť\n\nDOKONALÝ KĽUD a SÚKROMIE\n\nNádherný výhľad na Malé Karpaty.\nČistý zdravý vzduch. Blízky les ponúka možnosť využitia turistiky, výletov do okolitej prírody, cykloturistika, turistické chodníky.\n\nLamač má všetky výhody moderného bývania v meste a zároveň poskytuje komfort, súkromie a pokojné bývanie v prostredí lesov Malých Karpát. Vynikajúce dopravné napojenie na diaľničnú komunikáciu a MHD - zastávka sa nachádza asi 500m od vášho nového bývania, to vám zaručuje bezproblémovú dopravu do centra mesta.\n\nLamač ako Bratislavská mestská časť ponúka svojim obyvateľom vynikajúcu občiansku vybavenosť..... a možnosť športovo - rekreačných aktivít: turistické, cyklistické trasy, tenisové kurty, športové ihriská.\n\nPár minút autom máte k dispozícii nákupné centrum Bory Mall s bohatými službami, Hornbach, OBI, Metro.\n\nPrístup po betónovej ceste.\n\nInžinierske siete: elektrina a obecná voda.\n\n---------------------------------------------------\nRealitná kancelária\nFacebook @slovakhome\n\nTeším sa na obhliadku s Vami!\n\nFINANCOVANIE:\nSúčasťou našej kancelárie je hypotekárne centrum, kde vám kompletný servis zastreší naša hypotekárna špecialistka. Zazmluvnené máme všetky banky.\n\nV CENE JE ZAHRNUTÉ:\nProvízia RK, poskytnutie komplexných realitných a právnych služieb – vypracovanie rezervačnej zmluvy, kúpnej zmluvy s návrhom na vklad kúpnej zmluvy, uhradenie poplatku za osvedčenie podpisov kúpnej zmluvy, uhradenie právneho poplatku za návrh na vklad kúpnej zmluvy do katastra nehnuteľností, odovzdanie nehnuteľnosti a pomoc pri prepise všetkých energií.\n\nAutorizácia zmluvy advokátom a formou notárskej zápisnice.\n\nPredáme alebo odkúpime nehnuteľnosť .\nSom tu vždy pre Vás.\n\nKONTAKT\nIng. Ilja Družkov\n+421 917 318 063\ni.druzhkov@gmail.com",
      "contact" : "421 917 318 063",
      "created" : "2020-06-18T19:36:11Z",
      "updated" : "2020-06-18T19:36:11Z",
      "deactivated" : "2020-06-18T19:36:11Z",
      "countOfUpdates" : 1,
      "galleryUrl" : "https://www.topreality.sk/4i-rodinny-dom-pozemok-600m2-vyhlad-ktory-vezme-dych-r7278750/galeria.html#1",
      "latitude" : 48.1923025,
      "longitude" : 17.0592574,
      "_links" : {
        "self" : {
          "href" : "https://ads-sb.styko.online/notices/8"
        },
        "ad" : {
          "href" : "https://ads-sb.styko.online/notices/8"
        }
      }
    }, {
      "link" : "https://www.topreality.sk/id7278742",
      "title" : "5i Rodinný dom. Pozemok 600m2 VÝHĽAD, ktorý vezme DYCH",
      "lastPrice" : 392000,
      "currency" : "€",
      "prices" : [ {
        "updated" : "2020-06-18T19:36:11Z",
        "value" : 392000
      }, {
        "updated" : "2020-06-18T19:36:11Z",
        "value" : 392000
      } ],
      "locality" : "Bratislava IV, Lamač",
      "address" : "Cesta na Klanec",
      "size" : 153,
      "category" : "Rodinný dom / predaj",
      "description" : "5 izbový tehlový rodinný dom 153m2.\nPEKNÝ rovinatý pozemok 600m2 je v cene.\nŠírka pozemku 20m.\n\nKolaudacia 08.2021r.\n\n+ Dokončiť na kľúč + 15000eur\n+ Podlahove kúrenie\n+ Predpriprava na krb\n\nSlnečný rodinný dom sa nachádza v najlukratívnejšej časti Bratislavy, na úpätí Malých Karpát, obklopený prírodou s výhľadom na hory.\n\nDom je určený pre rodinu s deťmi, ktorá preferuje pohodlné a komfortné bývanie v tichom prostredí, s dobrou dostupnosťou do centra Bratislavy.\n\nPrízemie 117m2:\n+ Vstupná chodba\n+ Veľká obytná hala s krbom\n+ Kuchyňa\n+ Kúpeľňa\n+ WC\n+ Izba\n\nPoschodie 60m2:\n+ Spálňa ×2\n+ Izba\n+ Kúpeľňa s WC\n\nDOKONALÝ KĽUD a SÚKROMIE\n\nNádherný výhľad na Malé Karpaty.\nČistý zdravý vzduch. Blízky les ponúka možnosť využitia turistiky, výletov do okolitej prírody, cykloturistika, turistické chodníky.\n\nLamač má všetky výhody moderného bývania v meste a zároveň poskytuje komfort, súkromie a pokojné bývanie v prostredí lesov Malých Karpát. Vynikajúce dopravné napojenie na diaľničnú komunikáciu a MHD - zastávka sa nachádza asi 500m od vášho nového bývania, to vám zaručuje bezproblémovú dopravu do centra mesta.\n\nLamač ako Bratislavská mestská časť ponúka svojim obyvateľom vynikajúcu občiansku vybavenosť..... a možnosť športovo - rekreačných aktivít: turistické, cyklistické trasy, tenisové kurty, športové ihriská.\n\nPár minút autom máte k dispozícii nákupné centrum Bory Mall s bohatými službami, Hornbach, OBI, Metro.\n\nPrístup po betónovej ceste.\n\nInžinierske siete: elektrina a obecná voda.\n---------------------------------------------------\nRealitná kancelária\nFacebook @slovakhome\n\nTeším sa na obhliadku s Vami!\n\nFINANCOVANIE:\nSúčasťou našej kancelárie je hypotekárne centrum, kde vám kompletný servis zastreší naša hypotekárna špecialistka. Zazmluvnené máme všetky banky.\n\nV CENE JE ZAHRNUTÉ:\nProvízia RK, poskytnutie komplexných realitných a právnych služieb – vypracovanie rezervačnej zmluvy, kúpnej zmluvy s návrhom na vklad kúpnej zmluvy, uhradenie poplatku za osvedčenie podpisov kúpnej zmluvy, uhradenie právneho poplatku za návrh na vklad kúpnej zmluvy do katastra nehnuteľností, odovzdanie nehnuteľnosti a pomoc pri prepise všetkých energií.\n\nAutorizácia zmluvy advokátom a formou notárskej zápisnice.\n\nPredáme alebo odkúpime nehnuteľnosť .\nSom tu vždy pre Vás.\n\nKONTAKT\nIng. Ilja Družkov\n+421 917 318 063\ni.druzhkov@gmail.com",
      "contact" : "421 917 318 063",
      "created" : "2020-06-18T19:36:11Z",
      "updated" : "2020-06-18T19:36:11Z",
      "deactivated" : "2020-06-18T19:36:11Z",
      "countOfUpdates" : 1,
      "galleryUrl" : "https://www.topreality.sk/5i-rodinny-dom-pozemok-600m2-vyhlad-ktory-vezme-dych-r7278742/galeria.html#1",
      "latitude" : 48.1923025,
      "longitude" : 17.0592574,
      "_links" : {
        "self" : {
          "href" : "https://ads-sb.styko.online/notices/9"
        },
        "ad" : {
          "href" : "https://ads-sb.styko.online/notices/9"
        }
      }
    }, {
      "link" : "https://www.topreality.sk/id7279465",
      "title" : "Celoročne obývateľný hausboat v krásnej prírode v BA",
      "lastPrice" : 249000,
      "currency" : "€",
      "prices" : [ {
        "updated" : "2020-06-18T12:47:02Z",
        "value" : 249000
      }, {
        "updated" : "2020-06-18T12:47:02Z",
        "value" : 249000
      } ],
      "locality" : "Bratislava V, Jarovce",
      "address" : "Jarovské rameno Dunaja",
      "size" : 240,
      "category" : "Rodinný dom / predaj",
      "description" : "Užívajte si celoročne obývateľný hausboat v prírode bratislavskych lesov a vodnej plochy. 15. min. autom do centra BA a 5 min na obchvat dialnice D4R7. Vychutnajte si oddych a relax pri pohlade na vodu priamo z terasy domu.\n240m2 Vám poskytne dokonalý komfort bývania a 60m2 terasy zas oddychu .\n\nDispozícia hausboatu:\n1.podlažie: obývacia izba spojená s kuchyňou a jedálenským kútom s výstupom na terasu orientovanú na jazero, samostatná izba, technická miestnosť, samostatná toaleta, schodisko.\n\n2. podlažie: 1priestranná spáľňa s kúpeľňou sprchovým kútom a samostatnou toaletou, druhá spálňa s vaňou so sprch. kútom a toaletou, samostatná izba medzi spáľňami a vstup z kazdej izby na hornú terasu.\n\nVýbava:\nPlastové okná\nElektrické podlahové kúrenie\nKlimatizacia\nČistička odpadových vôd\nVlastná studňa\nŽelezná konštrukcia\nPostavený zo sendvičových panelov\n\nCena hausboatu 249 000.- eur\nV pripade záujmu o obhliadku alebo informácií neváhajte kontaktovať tel.č.: 0903/ 777 889",
      "contact" : "0905 338 888",
      "created" : "2020-06-18T12:47:02Z",
      "updated" : "2020-06-18T12:47:02Z",
      "deactivated" : "2020-06-18T12:47:02Z",
      "countOfUpdates" : 1,
      "galleryUrl" : "https://www.topreality.sk/celorocne-obyvatelny-hausboat-v-krasnej-prirode-v-ba-r7279465/galeria.html#1",
      "latitude" : 48.065056,
      "longitude" : 17.1140441,
      "_links" : {
        "self" : {
          "href" : "https://ads-sb.styko.online/notices/1"
        },
        "ad" : {
          "href" : "https://ads-sb.styko.online/notices/1"
        }
      }
    } ]
  },
  "_links" : {
    "first" : {
      "href" : "https://ads-sb.styko.online/notices?page=0&size=5&sort=created,desc"
    },
    "self" : {
      "href" : "https://ads-sb.styko.online/notices"
    },
    "next" : {
      "href" : "https://ads-sb.styko.online/notices?page=1&size=5&sort=created,desc"
    },
    "last" : {
      "href" : "https://ads-sb.styko.online/notices?page=1&size=5&sort=created,desc"
    },
    "profile" : {
      "href" : "https://ads-sb.styko.online/profile/notices"
    },
    "search" : {
      "href" : "https://ads-sb.styko.online/notices/search"
    }
  },
  "page" : {
    "size" : 5,
    "totalElements" : 9,
    "totalPages" : 2,
    "number" : 0
  }
}
